-- Merging decision tree log ---
provider#androidx.core.content.FileProvider
INJECTED from D:\Games\mobile-tech-app\AndroidNotesApplication\app\src\main\AndroidManifest.xml:53:9-61:20
	android:grantUriPermissions
		ADDED from D:\Games\mobile-tech-app\AndroidNotesApplication\app\src\main\AndroidManifest.xml:57:13-47
	android:authorities
		INJECTED from D:\Games\mobile-tech-app\AndroidNotesApplication\app\src\main\AndroidManifest.xml
		ADDED from D:\Games\mobile-tech-app\AndroidNotesApplication\app\src\main\AndroidManifest.xml:54:13-64
	android:exported
		ADDED from D:\Games\mobile-tech-app\AndroidNotesApplication\app\src\main\AndroidManifest.xml:56:13-37
	android:name
		ADDED from D:\Games\mobile-tech-app\AndroidNotesApplication\app\src\main\AndroidManifest.xml:55:13-62
manifest
ADDED from D:\Games\mobile-tech-app\AndroidNotesApplication\app\src\main\AndroidManifest.xml:2:1-64:12
INJECTED from D:\Games\mobile-tech-app\AndroidNotesApplication\app\src\main\AndroidManifest.xml:2:1-64:12
INJECTED from D:\Games\mobile-tech-app\AndroidNotesApplication\app\src\main\AndroidManifest.xml:2:1-64:12
INJECTED from D:\Games\mobile-tech-app\AndroidNotesApplication\app\src\main\AndroidManifest.xml:2:1-64:12
MERGED from [com.google.android.material:material:1.1.0-alpha04] C:\Users\harle\.gradle\caches\transforms-2\files-2.1\2284d7363fd73063621d13c4dde30bde\material-1.1.0-alpha04\AndroidManifest.xml:17:1-24:12
MERGED from [com.ajts.androidmads.sqliteimpex:library:1.0.0] C:\Users\harle\.gradle\caches\transforms-2\files-2.1\f86b804708230fb385d5937bc923f91e\library-1.0.0\AndroidManifest.xml:2:1-17:12
MERGED from [androidx.appcompat:appcompat:1.1.0] C:\Users\harle\.gradle\caches\transforms-2\files-2.1\383837a1f189d10df3511e6927171459\appcompat-1.1.0\AndroidManifest.xml:17:1-24:12
MERGED from [androidx.constraintlayout:constraintlayout:1.1.3] C:\Users\harle\.gradle\caches\transforms-2\files-2.1\7486e7b29120c3ce52d033d841b80346\constraintlayout-1.1.3\AndroidManifest.xml:2:1-11:12
MERGED from [androidx.room:room-runtime:2.0.0] C:\Users\harle\.gradle\caches\transforms-2\files-2.1\03f0c1ddf6bfdac61d0a6386d233797b\room-runtime-2.0.0\AndroidManifest.xml:17:1-22:12
MERGED from [androidx.paging:paging-runtime:2.0.0] C:\Users\harle\.gradle\caches\transforms-2\files-2.1\b31e2536aa8c780556543f34e1061f32\paging-runtime-2.0.0\AndroidManifest.xml:17:1-22:12
MERGED from [androidx.recyclerview:recyclerview:1.1.0-alpha01] C:\Users\harle\.gradle\caches\transforms-2\files-2.1\2e2d535b249a5234d90249eb075c5d86\recyclerview-1.1.0-alpha01\AndroidManifest.xml:17:1-22:12
MERGED from [com.google.android.gms:play-services-maps:17.0.0] C:\Users\harle\.gradle\caches\transforms-2\files-2.1\f1e8a552b6270f33a49ec3b6de09bbea\play-services-maps-17.0.0\AndroidManifest.xml:17:1-38:12
MERGED from [com.google.android.gms:play-services-base:17.0.0] C:\Users\harle\.gradle\caches\transforms-2\files-2.1\61050d192d7b40096effddbc75f65a23\play-services-base-17.0.0\AndroidManifest.xml:17:1-29:12
MERGED from [com.google.android.gms:play-services-tasks:17.0.0] C:\Users\harle\.gradle\caches\transforms-2\files-2.1\dffe7cebfa4e6032ec3fea966723cfe7\play-services-tasks-17.0.0\AndroidManifest.xml:2:1-9:12
MERGED from [com.google.android.gms:play-services-basement:17.0.0] C:\Users\harle\.gradle\caches\transforms-2\files-2.1\2f2a5c73c86c89756da15277ad9b569e\jetified-play-services-basement-17.0.0\AndroidManifest.xml:17:1-28:12
MERGED from [androidx.fragment:fragment:1.1.0] C:\Users\harle\.gradle\caches\transforms-2\files-2.1\6185f9922dbdec258d755400505a7480\fragment-1.1.0\AndroidManifest.xml:17:1-24:12
MERGED from [androidx.appcompat:appcompat-resources:1.1.0] C:\Users\harle\.gradle\caches\transforms-2\files-2.1\922d0a7a738b37f00ad7e7b4cbbdb0f3\appcompat-resources-1.1.0\AndroidManifest.xml:17:1-24:12
MERGED from [androidx.legacy:legacy-support-core-ui:1.0.0] C:\Users\harle\.gradle\caches\transforms-2\files-2.1\17b125378fc55b264e31eccaff8fa6ca\legacy-support-core-ui-1.0.0\AndroidManifest.xml:17:1-22:12
MERGED from [androidx.drawerlayout:drawerlayout:1.0.0] C:\Users\harle\.gradle\caches\transforms-2\files-2.1\5e8839c5fdf906c0d681ada18dc250c8\drawerlayout-1.0.0\AndroidManifest.xml:17:1-22:12
MERGED from [androidx.coordinatorlayout:coordinatorlayout:1.1.0-alpha01] C:\Users\harle\.gradle\caches\transforms-2\files-2.1\cdcd7b4fd4c0b326ebd489122d27ba41\coordinatorlayout-1.1.0-alpha01\AndroidManifest.xml:17:1-22:12
MERGED from [androidx.legacy:legacy-support-core-utils:1.0.0] C:\Users\harle\.gradle\caches\transforms-2\files-2.1\240b5d9dac701614a3199e1fe97e5b6c\legacy-support-core-utils-1.0.0\AndroidManifest.xml:17:1-22:12
MERGED from [androidx.transition:transition:1.0.1] C:\Users\harle\.gradle\caches\transforms-2\files-2.1\7b0fe14a2be7e4c0132f4d250e981428\transition-1.0.1\AndroidManifest.xml:17:1-22:12
MERGED from [androidx.viewpager:viewpager:1.0.0] C:\Users\harle\.gradle\caches\transforms-2\files-2.1\955a6585d7a9c18d6bf6a87f6ee65069\viewpager-1.0.0\AndroidManifest.xml:17:1-22:12
MERGED from [androidx.loader:loader:1.0.0] C:\Users\harle\.gradle\caches\transforms-2\files-2.1\6d12fcce36df08538717b88e14b43a49\loader-1.0.0\AndroidManifest.xml:17:1-22:12
MERGED from [androidx.activity:activity:1.0.0] C:\Users\harle\.gradle\caches\transforms-2\files-2.1\27bb1a82a352fcc4ad1c98b891d7bb5d\activity-1.0.0\AndroidManifest.xml:17:1-24:12
MERGED from [androidx.vectordrawable:vectordrawable-animated:1.1.0] C:\Users\harle\.gradle\caches\transforms-2\files-2.1\557eb28e58ea701ed3e7b1d827d36107\vectordrawable-animated-1.1.0\AndroidManifest.xml:17:1-24:12
MERGED from [androidx.vectordrawable:vectordrawable:1.1.0] C:\Users\harle\.gradle\caches\transforms-2\files-2.1\f935106c2b4fa8baea5aa8af14d2b13f\vectordrawable-1.1.0\AndroidManifest.xml:17:1-24:12
MERGED from [androidx.slidingpanelayout:slidingpanelayout:1.0.0] C:\Users\harle\.gradle\caches\transforms-2\files-2.1\b62690d9dde2a6a00a94a6af7c0f163c\slidingpanelayout-1.0.0\AndroidManifest.xml:17:1-22:12
MERGED from [androidx.customview:customview:1.0.0] C:\Users\harle\.gradle\caches\transforms-2\files-2.1\36abab4db82c302e39d424a4f8f4e29e\customview-1.0.0\AndroidManifest.xml:17:1-22:12
MERGED from [androidx.swiperefreshlayout:swiperefreshlayout:1.0.0] C:\Users\harle\.gradle\caches\transforms-2\files-2.1\f8948b0232052db3e7b8f03c891701f8\swiperefreshlayout-1.0.0\AndroidManifest.xml:17:1-22:12
MERGED from [androidx.asynclayoutinflater:asynclayoutinflater:1.0.0] C:\Users\harle\.gradle\caches\transforms-2\files-2.1\853d26324799c26871954791069483df\asynclayoutinflater-1.0.0\AndroidManifest.xml:17:1-22:12
MERGED from [androidx.core:core:1.1.0] C:\Users\harle\.gradle\caches\transforms-2\files-2.1\0136ca65841c199e13145e51c5d77d51\core-1.1.0\AndroidManifest.xml:17:1-26:12
MERGED from [androidx.cursoradapter:cursoradapter:1.0.0] C:\Users\harle\.gradle\caches\transforms-2\files-2.1\a7ed0ca913094dcd572a2a491ee77296\cursoradapter-1.0.0\AndroidManifest.xml:17:1-22:12
MERGED from [androidx.cardview:cardview:1.0.0] C:\Users\harle\.gradle\caches\transforms-2\files-2.1\88d46ce597d410c8d9a1addcd2777129\cardview-1.0.0\AndroidManifest.xml:17:1-22:12
MERGED from [androidx.sqlite:sqlite-framework:2.0.0] C:\Users\harle\.gradle\caches\transforms-2\files-2.1\8ccd373bdbfcbc675f73af8b570b2085\sqlite-framework-2.0.0\AndroidManifest.xml:17:1-22:12
MERGED from [androidx.sqlite:sqlite:2.0.0] C:\Users\harle\.gradle\caches\transforms-2\files-2.1\8e2ac58592e5e7471002138330ec2654\sqlite-2.0.0\AndroidManifest.xml:17:1-22:12
MERGED from [androidx.lifecycle:lifecycle-livedata:2.0.0] C:\Users\harle\.gradle\caches\transforms-2\files-2.1\cfc7a075599825242ccb3bf9049138d1\lifecycle-livedata-2.0.0\AndroidManifest.xml:17:1-22:12
MERGED from [androidx.lifecycle:lifecycle-livedata-core:2.0.0] C:\Users\harle\.gradle\caches\transforms-2\files-2.1\942ae5bb408d75da4f7f89b1ab4a5794\lifecycle-livedata-core-2.0.0\AndroidManifest.xml:17:1-22:12
MERGED from [androidx.arch.core:core-runtime:2.0.0] C:\Users\harle\.gradle\caches\transforms-2\files-2.1\3f7255e5c39577612d42757c6a1a973c\core-runtime-2.0.0\AndroidManifest.xml:17:1-22:12
MERGED from [androidx.versionedparcelable:versionedparcelable:1.1.0] C:\Users\harle\.gradle\caches\transforms-2\files-2.1\9e4ba8edcf27848e4358a1aaab005aeb\versionedparcelable-1.1.0\AndroidManifest.xml:17:1-27:12
MERGED from [androidx.interpolator:interpolator:1.0.0] C:\Users\harle\.gradle\caches\transforms-2\files-2.1\0694e27135a967a4619b8381997d15ff\interpolator-1.0.0\AndroidManifest.xml:17:1-22:12
MERGED from [androidx.documentfile:documentfile:1.0.0] C:\Users\harle\.gradle\caches\transforms-2\files-2.1\e4a94d2054024c8be95b68226af78a53\documentfile-1.0.0\AndroidManifest.xml:17:1-22:12
MERGED from [androidx.localbroadcastmanager:localbroadcastmanager:1.0.0] C:\Users\harle\.gradle\caches\transforms-2\files-2.1\37caa00d68abfda0e932890140749490\localbroadcastmanager-1.0.0\AndroidManifest.xml:17:1-22:12
MERGED from [androidx.print:print:1.0.0] C:\Users\harle\.gradle\caches\transforms-2\files-2.1\e1d01877c650a22b3c257891754df4cc\print-1.0.0\AndroidManifest.xml:17:1-22:12
MERGED from [androidx.lifecycle:lifecycle-runtime:2.1.0] C:\Users\harle\.gradle\caches\transforms-2\files-2.1\d5c8fd7656d2d781dd0b283b433d864f\lifecycle-runtime-2.1.0\AndroidManifest.xml:17:1-22:12
MERGED from [androidx.lifecycle:lifecycle-viewmodel:2.1.0] C:\Users\harle\.gradle\caches\transforms-2\files-2.1\bde85ae55f6557b57d2583fe07d581aa\lifecycle-viewmodel-2.1.0\AndroidManifest.xml:17:1-22:12
MERGED from [androidx.savedstate:savedstate:1.0.0] C:\Users\harle\.gradle\caches\transforms-2\files-2.1\aaebdf12f89ffa22d526c59842f63ce2\savedstate-1.0.0\AndroidManifest.xml:17:1-24:12
INJECTED from D:\Games\mobile-tech-app\AndroidNotesApplication\app\src\main\AndroidManifest.xml:2:1-64:12
INJECTED from D:\Games\mobile-tech-app\AndroidNotesApplication\app\src\main\AndroidManifest.xml:2:1-64:12
INJECTED from D:\Games\mobile-tech-app\AndroidNotesApplication\app\src\main\AndroidManifest.xml:2:1-64:12
	package
		ADDED from D:\Games\mobile-tech-app\AndroidNotesApplication\app\src\main\AndroidManifest.xml:5:5-50
		INJECTED from D:\Games\mobile-tech-app\AndroidNotesApplication\app\src\main\AndroidManifest.xml
		INJECTED from D:\Games\mobile-tech-app\AndroidNotesApplication\app\src\main\AndroidManifest.xml
	android:versionName
		INJECTED from D:\Games\mobile-tech-app\AndroidNotesApplication\app\src\main\AndroidManifest.xml
		ADDED from D:\Games\mobile-tech-app\AndroidNotesApplication\app\src\main\AndroidManifest.xml:2:1-64:12
		INJECTED from D:\Games\mobile-tech-app\AndroidNotesApplication\app\src\main\AndroidManifest.xml
	xmlns:tools
		ADDED from D:\Games\mobile-tech-app\AndroidNotesApplication\app\src\main\AndroidManifest.xml:4:5-51
	android:versionCode
		INJECTED from D:\Games\mobile-tech-app\AndroidNotesApplication\app\src\main\AndroidManifest.xml
		ADDED from D:\Games\mobile-tech-app\AndroidNotesApplication\app\src\main\AndroidManifest.xml:2:1-64:12
		INJECTED from D:\Games\mobile-tech-app\AndroidNotesApplication\app\src\main\AndroidManifest.xml
	xmlns:android
		ADDED from D:\Games\mobile-tech-app\AndroidNotesApplication\app\src\main\AndroidManifest.xml:3:5-63
uses-permission#android.permission.INTERNET
ADDED from D:\Games\mobile-tech-app\AndroidNotesApplication\app\src\main\AndroidManifest.xml:7:5-67
MERGED from [com.google.android.gms:play-services-maps:17.0.0] C:\Users\harle\.gradle\caches\transforms-2\files-2.1\f1e8a552b6270f33a49ec3b6de09bbea\play-services-maps-17.0.0\AndroidManifest.xml:24:5-67
MERGED from [com.google.android.gms:play-services-maps:17.0.0] C:\Users\harle\.gradle\caches\transforms-2\files-2.1\f1e8a552b6270f33a49ec3b6de09bbea\play-services-maps-17.0.0\AndroidManifest.xml:24:5-67
	android:name
		ADDED from D:\Games\mobile-tech-app\AndroidNotesApplication\app\src\main\AndroidManifest.xml:7:22-64
uses-permission#android.permission.ACCESS_NETWORK_STATE
ADDED from D:\Games\mobile-tech-app\AndroidNotesApplication\app\src\main\AndroidManifest.xml:8:5-78
MERGED from [com.google.android.gms:play-services-maps:17.0.0] C:\Users\harle\.gradle\caches\transforms-2\files-2.1\f1e8a552b6270f33a49ec3b6de09bbea\play-services-maps-17.0.0\AndroidManifest.xml:23:5-79
MERGED from [com.google.android.gms:play-services-maps:17.0.0] C:\Users\harle\.gradle\caches\transforms-2\files-2.1\f1e8a552b6270f33a49ec3b6de09bbea\play-services-maps-17.0.0\AndroidManifest.xml:23:5-79
	android:name
		ADDED from D:\Games\mobile-tech-app\AndroidNotesApplication\app\src\main\AndroidManifest.xml:8:22-76
uses-permission#android.permission.ACCESS_FINE_LOCATION
ADDED from D:\Games\mobile-tech-app\AndroidNotesApplication\app\src\main\AndroidManifest.xml:9:5-78
	android:name
		ADDED from D:\Games\mobile-tech-app\AndroidNotesApplication\app\src\main\AndroidManifest.xml:9:22-76
uses-permission#android.permission.READ_EXTERNAL_STORAGE
ADDED from D:\Games\mobile-tech-app\AndroidNotesApplication\app\src\main\AndroidManifest.xml:10:5-79
	android:name
		ADDED from D:\Games\mobile-tech-app\AndroidNotesApplication\app\src\main\AndroidManifest.xml:10:22-77
uses-permission#android.permission.WRITE_EXTERNAL_STORAGE
ADDED from D:\Games\mobile-tech-app\AndroidNotesApplication\app\src\main\AndroidManifest.xml:11:5-81
	android:name
		ADDED from D:\Games\mobile-tech-app\AndroidNotesApplication\app\src\main\AndroidManifest.xml:11:22-78
uses-permission#android.permission.VIBRATE
ADDED from D:\Games\mobile-tech-app\AndroidNotesApplication\app\src\main\AndroidManifest.xml:12:5-66
	android:name
		ADDED from D:\Games\mobile-tech-app\AndroidNotesApplication\app\src\main\AndroidManifest.xml:12:22-63
application
ADDED from D:\Games\mobile-tech-app\AndroidNotesApplication\app\src\main\AndroidManifest.xml:14:5-62:19
MERGED from [com.google.android.material:material:1.1.0-alpha04] C:\Users\harle\.gradle\caches\transforms-2\files-2.1\2284d7363fd73063621d13c4dde30bde\material-1.1.0-alpha04\AndroidManifest.xml:22:5-20
MERGED from [com.google.android.material:material:1.1.0-alpha04] C:\Users\harle\.gradle\caches\transforms-2\files-2.1\2284d7363fd73063621d13c4dde30bde\material-1.1.0-alpha04\AndroidManifest.xml:22:5-20
MERGED from [com.ajts.androidmads.sqliteimpex:library:1.0.0] C:\Users\harle\.gradle\caches\transforms-2\files-2.1\f86b804708230fb385d5937bc923f91e\library-1.0.0\AndroidManifest.xml:11:5-15:19
MERGED from [com.ajts.androidmads.sqliteimpex:library:1.0.0] C:\Users\harle\.gradle\caches\transforms-2\files-2.1\f86b804708230fb385d5937bc923f91e\library-1.0.0\AndroidManifest.xml:11:5-15:19
MERGED from [androidx.constraintlayout:constraintlayout:1.1.3] C:\Users\harle\.gradle\caches\transforms-2\files-2.1\7486e7b29120c3ce52d033d841b80346\constraintlayout-1.1.3\AndroidManifest.xml:9:5-20
MERGED from [androidx.constraintlayout:constraintlayout:1.1.3] C:\Users\harle\.gradle\caches\transforms-2\files-2.1\7486e7b29120c3ce52d033d841b80346\constraintlayout-1.1.3\AndroidManifest.xml:9:5-20
MERGED from [com.google.android.gms:play-services-maps:17.0.0] C:\Users\harle\.gradle\caches\transforms-2\files-2.1\f1e8a552b6270f33a49ec3b6de09bbea\play-services-maps-17.0.0\AndroidManifest.xml:30:5-36:19
MERGED from [com.google.android.gms:play-services-maps:17.0.0] C:\Users\harle\.gradle\caches\transforms-2\files-2.1\f1e8a552b6270f33a49ec3b6de09bbea\play-services-maps-17.0.0\AndroidManifest.xml:30:5-36:19
MERGED from [com.google.android.gms:play-services-base:17.0.0] C:\Users\harle\.gradle\caches\transforms-2\files-2.1\61050d192d7b40096effddbc75f65a23\play-services-base-17.0.0\AndroidManifest.xml:22:5-27:19
MERGED from [com.google.android.gms:play-services-base:17.0.0] C:\Users\harle\.gradle\caches\transforms-2\files-2.1\61050d192d7b40096effddbc75f65a23\play-services-base-17.0.0\AndroidManifest.xml:22:5-27:19
MERGED from [com.google.android.gms:play-services-tasks:17.0.0] C:\Users\harle\.gradle\caches\transforms-2\files-2.1\dffe7cebfa4e6032ec3fea966723cfe7\play-services-tasks-17.0.0\AndroidManifest.xml:7:5-20
MERGED from [com.google.android.gms:play-services-tasks:17.0.0] C:\Users\harle\.gradle\caches\transforms-2\files-2.1\dffe7cebfa4e6032ec3fea966723cfe7\play-services-tasks-17.0.0\AndroidManifest.xml:7:5-20
MERGED from [com.google.android.gms:play-services-basement:17.0.0] C:\Users\harle\.gradle\caches\transforms-2\files-2.1\2f2a5c73c86c89756da15277ad9b569e\jetified-play-services-basement-17.0.0\AndroidManifest.xml:22:5-26:19
MERGED from [com.google.android.gms:play-services-basement:17.0.0] C:\Users\harle\.gradle\caches\transforms-2\files-2.1\2f2a5c73c86c89756da15277ad9b569e\jetified-play-services-basement-17.0.0\AndroidManifest.xml:22:5-26:19
MERGED from [androidx.core:core:1.1.0] C:\Users\harle\.gradle\caches\transforms-2\files-2.1\0136ca65841c199e13145e51c5d77d51\core-1.1.0\AndroidManifest.xml:24:5-89
MERGED from [androidx.core:core:1.1.0] C:\Users\harle\.gradle\caches\transforms-2\files-2.1\0136ca65841c199e13145e51c5d77d51\core-1.1.0\AndroidManifest.xml:24:5-89
MERGED from [androidx.versionedparcelable:versionedparcelable:1.1.0] C:\Users\harle\.gradle\caches\transforms-2\files-2.1\9e4ba8edcf27848e4358a1aaab005aeb\versionedparcelable-1.1.0\AndroidManifest.xml:24:5-25:19
MERGED from [androidx.versionedparcelable:versionedparcelable:1.1.0] C:\Users\harle\.gradle\caches\transforms-2\files-2.1\9e4ba8edcf27848e4358a1aaab005aeb\versionedparcelable-1.1.0\AndroidManifest.xml:24:5-25:19
	android:appComponentFactory
		ADDED from [androidx.core:core:1.1.0] C:\Users\harle\.gradle\caches\transforms-2\files-2.1\0136ca65841c199e13145e51c5d77d51\core-1.1.0\AndroidManifest.xml:24:18-86
	android:supportsRtl
		ADDED from D:\Games\mobile-tech-app\AndroidNotesApplication\app\src\main\AndroidManifest.xml:19:9-35
	android:label
		ADDED from D:\Games\mobile-tech-app\AndroidNotesApplication\app\src\main\AndroidManifest.xml:17:9-41
	android:roundIcon
		ADDED from D:\Games\mobile-tech-app\AndroidNotesApplication\app\src\main\AndroidManifest.xml:18:9-54
	android:icon
		ADDED from D:\Games\mobile-tech-app\AndroidNotesApplication\app\src\main\AndroidManifest.xml:16:9-48
	android:allowBackup
		ADDED from D:\Games\mobile-tech-app\AndroidNotesApplication\app\src\main\AndroidManifest.xml:15:9-35
	android:theme
		ADDED from D:\Games\mobile-tech-app\AndroidNotesApplication\app\src\main\AndroidManifest.xml:20:9-40
activity#com.example.androidnotesapplication.MainActivity
ADDED from D:\Games\mobile-tech-app\AndroidNotesApplication\app\src\main\AndroidManifest.xml:21:9-29:20
	android:label
		ADDED from D:\Games\mobile-tech-app\AndroidNotesApplication\app\src\main\AndroidManifest.xml:23:13-45
	android:windowSoftInputMode
		ADDED from D:\Games\mobile-tech-app\AndroidNotesApplication\app\src\main\AndroidManifest.xml:24:13-52
	android:name
		ADDED from D:\Games\mobile-tech-app\AndroidNotesApplication\app\src\main\AndroidManifest.xml:22:13-41
intent-filter#action:name:android.intent.action.MAIN+category:name:android.intent.category.LAUNCHER
ADDED from D:\Games\mobile-tech-app\AndroidNotesApplication\app\src\main\AndroidManifest.xml:25:13-28:29
action#android.intent.action.MAIN
ADDED from D:\Games\mobile-tech-app\AndroidNotesApplication\app\src\main\AndroidManifest.xml:26:17-69
	android:name
		ADDED from D:\Games\mobile-tech-app\AndroidNotesApplication\app\src\main\AndroidManifest.xml:26:25-66
category#android.intent.category.LAUNCHER
ADDED from D:\Games\mobile-tech-app\AndroidNotesApplication\app\src\main\AndroidManifest.xml:27:17-77
	android:name
		ADDED from D:\Games\mobile-tech-app\AndroidNotesApplication\app\src\main\AndroidManifest.xml:27:27-74
activity#com.example.androidnotesapplication.ModifyNoteActivity
ADDED from D:\Games\mobile-tech-app\AndroidNotesApplication\app\src\main\AndroidManifest.xml:30:9-34:20
	android:name
		ADDED from D:\Games\mobile-tech-app\AndroidNotesApplication\app\src\main\AndroidManifest.xml:30:19-53
meta-data#android.support.PARENT_ACTIVITY
ADDED from D:\Games\mobile-tech-app\AndroidNotesApplication\app\src\main\AndroidManifest.xml:31:13-33:84
	android:value
		ADDED from D:\Games\mobile-tech-app\AndroidNotesApplication\app\src\main\AndroidManifest.xml:33:17-81
	android:name
		ADDED from D:\Games\mobile-tech-app\AndroidNotesApplication\app\src\main\AndroidManifest.xml:32:17-63
activity#com.example.androidnotesapplication.AboutActivity
ADDED from D:\Games\mobile-tech-app\AndroidNotesApplication\app\src\main\AndroidManifest.xml:35:9-39:20
	android:name
		ADDED from D:\Games\mobile-tech-app\AndroidNotesApplication\app\src\main\AndroidManifest.xml:35:19-48
activity#com.example.androidnotesapplication.ModifyTaskActivity
ADDED from D:\Games\mobile-tech-app\AndroidNotesApplication\app\src\main\AndroidManifest.xml:40:9-44:20
	android:name
		ADDED from D:\Games\mobile-tech-app\AndroidNotesApplication\app\src\main\AndroidManifest.xml:40:19-53
activity#com.example.androidnotesapplication.ModifyDiaryActivity
ADDED from D:\Games\mobile-tech-app\AndroidNotesApplication\app\src\main\AndroidManifest.xml:45:9-49:20
	android:name
		ADDED from D:\Games\mobile-tech-app\AndroidNotesApplication\app\src\main\AndroidManifest.xml:45:19-54
activity#com.example.androidnotesapplication.OpenImageActivity
ADDED from D:\Games\mobile-tech-app\AndroidNotesApplication\app\src\main\AndroidManifest.xml:50:9-51:20
	android:name
		ADDED from D:\Games\mobile-tech-app\AndroidNotesApplication\app\src\main\AndroidManifest.xml:50:19-52
uses-sdk
INJECTED from D:\Games\mobile-tech-app\AndroidNotesApplication\app\src\main\AndroidManifest.xml reason: use-sdk injection requested
INJECTED from D:\Games\mobile-tech-app\AndroidNotesApplication\app\src\main\AndroidManifest.xml
INJECTED from D:\Games\mobile-tech-app\AndroidNotesApplication\app\src\main\AndroidManifest.xml
MERGED from [com.google.android.material:material:1.1.0-alpha04] C:\Users\harle\.gradle\caches\transforms-2\files-2.1\2284d7363fd73063621d13c4dde30bde\material-1.1.0-alpha04\AndroidManifest.xml:20:5-44
MERGED from [com.google.android.material:material:1.1.0-alpha04] C:\Users\harle\.gradle\caches\transforms-2\files-2.1\2284d7363fd73063621d13c4dde30bde\material-1.1.0-alpha04\AndroidManifest.xml:20:5-44
MERGED from [com.ajts.androidmads.sqliteimpex:library:1.0.0] C:\Users\harle\.gradle\caches\transforms-2\files-2.1\f86b804708230fb385d5937bc923f91e\library-1.0.0\AndroidManifest.xml:7:5-9:41
MERGED from [com.ajts.androidmads.sqliteimpex:library:1.0.0] C:\Users\harle\.gradle\caches\transforms-2\files-2.1\f86b804708230fb385d5937bc923f91e\library-1.0.0\AndroidManifest.xml:7:5-9:41
MERGED from [androidx.appcompat:appcompat:1.1.0] C:\Users\harle\.gradle\caches\transforms-2\files-2.1\383837a1f189d10df3511e6927171459\appcompat-1.1.0\AndroidManifest.xml:20:5-22:41
MERGED from [androidx.appcompat:appcompat:1.1.0] C:\Users\harle\.gradle\caches\transforms-2\files-2.1\383837a1f189d10df3511e6927171459\appcompat-1.1.0\AndroidManifest.xml:20:5-22:41
MERGED from [androidx.constraintlayout:constraintlayout:1.1.3] C:\Users\harle\.gradle\caches\transforms-2\files-2.1\7486e7b29120c3ce52d033d841b80346\constraintlayout-1.1.3\AndroidManifest.xml:5:5-7:41
MERGED from [androidx.constraintlayout:constraintlayout:1.1.3] C:\Users\harle\.gradle\caches\transforms-2\files-2.1\7486e7b29120c3ce52d033d841b80346\constraintlayout-1.1.3\AndroidManifest.xml:5:5-7:41
MERGED from [androidx.room:room-runtime:2.0.0] C:\Users\harle\.gradle\caches\transforms-2\files-2.1\03f0c1ddf6bfdac61d0a6386d233797b\room-runtime-2.0.0\AndroidManifest.xml:20:5-44
MERGED from [androidx.room:room-runtime:2.0.0] C:\Users\harle\.gradle\caches\transforms-2\files-2.1\03f0c1ddf6bfdac61d0a6386d233797b\room-runtime-2.0.0\AndroidManifest.xml:20:5-44
MERGED from [androidx.paging:paging-runtime:2.0.0] C:\Users\harle\.gradle\caches\transforms-2\files-2.1\b31e2536aa8c780556543f34e1061f32\paging-runtime-2.0.0\AndroidManifest.xml:20:5-44
MERGED from [androidx.paging:paging-runtime:2.0.0] C:\Users\harle\.gradle\caches\transforms-2\files-2.1\b31e2536aa8c780556543f34e1061f32\paging-runtime-2.0.0\AndroidManifest.xml:20:5-44
MERGED from [androidx.recyclerview:recyclerview:1.1.0-alpha01] C:\Users\harle\.gradle\caches\transforms-2\files-2.1\2e2d535b249a5234d90249eb075c5d86\recyclerview-1.1.0-alpha01\AndroidManifest.xml:20:5-44
MERGED from [androidx.recyclerview:recyclerview:1.1.0-alpha01] C:\Users\harle\.gradle\caches\transforms-2\files-2.1\2e2d535b249a5234d90249eb075c5d86\recyclerview-1.1.0-alpha01\AndroidManifest.xml:20:5-44
MERGED from [com.google.android.gms:play-services-maps:17.0.0] C:\Users\harle\.gradle\caches\transforms-2\files-2.1\f1e8a552b6270f33a49ec3b6de09bbea\play-services-maps-17.0.0\AndroidManifest.xml:20:5-44
MERGED from [com.google.android.gms:play-services-maps:17.0.0] C:\Users\harle\.gradle\caches\transforms-2\files-2.1\f1e8a552b6270f33a49ec3b6de09bbea\play-services-maps-17.0.0\AndroidManifest.xml:20:5-44
MERGED from [com.google.android.gms:play-services-base:17.0.0] C:\Users\harle\.gradle\caches\transforms-2\files-2.1\61050d192d7b40096effddbc75f65a23\play-services-base-17.0.0\AndroidManifest.xml:20:5-44
MERGED from [com.google.android.gms:play-services-base:17.0.0] C:\Users\harle\.gradle\caches\transforms-2\files-2.1\61050d192d7b40096effddbc75f65a23\play-services-base-17.0.0\AndroidManifest.xml:20:5-44
MERGED from [com.google.android.gms:play-services-tasks:17.0.0] C:\Users\harle\.gradle\caches\transforms-2\files-2.1\dffe7cebfa4e6032ec3fea966723cfe7\play-services-tasks-17.0.0\AndroidManifest.xml:5:5-44
MERGED from [com.google.android.gms:play-services-tasks:17.0.0] C:\Users\harle\.gradle\caches\transforms-2\files-2.1\dffe7cebfa4e6032ec3fea966723cfe7\play-services-tasks-17.0.0\AndroidManifest.xml:5:5-44
MERGED from [com.google.android.gms:play-services-basement:17.0.0] C:\Users\harle\.gradle\caches\transforms-2\files-2.1\2f2a5c73c86c89756da15277ad9b569e\jetified-play-services-basement-17.0.0\AndroidManifest.xml:20:5-44
MERGED from [com.google.android.gms:play-services-basement:17.0.0] C:\Users\harle\.gradle\caches\transforms-2\files-2.1\2f2a5c73c86c89756da15277ad9b569e\jetified-play-services-basement-17.0.0\AndroidManifest.xml:20:5-44
MERGED from [androidx.fragment:fragment:1.1.0] C:\Users\harle\.gradle\caches\transforms-2\files-2.1\6185f9922dbdec258d755400505a7480\fragment-1.1.0\AndroidManifest.xml:20:5-22:41
MERGED from [androidx.fragment:fragment:1.1.0] C:\Users\harle\.gradle\caches\transforms-2\files-2.1\6185f9922dbdec258d755400505a7480\fragment-1.1.0\AndroidManifest.xml:20:5-22:41
MERGED from [androidx.appcompat:appcompat-resources:1.1.0] C:\Users\harle\.gradle\caches\transforms-2\files-2.1\922d0a7a738b37f00ad7e7b4cbbdb0f3\appcompat-resources-1.1.0\AndroidManifest.xml:20:5-22:41
MERGED from [androidx.appcompat:appcompat-resources:1.1.0] C:\Users\harle\.gradle\caches\transforms-2\files-2.1\922d0a7a738b37f00ad7e7b4cbbdb0f3\appcompat-resources-1.1.0\AndroidManifest.xml:20:5-22:41
MERGED from [androidx.legacy:legacy-support-core-ui:1.0.0] C:\Users\harle\.gradle\caches\transforms-2\files-2.1\17b125378fc55b264e31eccaff8fa6ca\legacy-support-core-ui-1.0.0\AndroidManifest.xml:20:5-44
MERGED from [androidx.legacy:legacy-support-core-ui:1.0.0] C:\Users\harle\.gradle\caches\transforms-2\files-2.1\17b125378fc55b264e31eccaff8fa6ca\legacy-support-core-ui-1.0.0\AndroidManifest.xml:20:5-44
MERGED from [androidx.drawerlayout:drawerlayout:1.0.0] C:\Users\harle\.gradle\caches\transforms-2\files-2.1\5e8839c5fdf906c0d681ada18dc250c8\drawerlayout-1.0.0\AndroidManifest.xml:20:5-44
MERGED from [androidx.drawerlayout:drawerlayout:1.0.0] C:\Users\harle\.gradle\caches\transforms-2\files-2.1\5e8839c5fdf906c0d681ada18dc250c8\drawerlayout-1.0.0\AndroidManifest.xml:20:5-44
MERGED from [androidx.coordinatorlayout:coordinatorlayout:1.1.0-alpha01] C:\Users\harle\.gradle\caches\transforms-2\files-2.1\cdcd7b4fd4c0b326ebd489122d27ba41\coordinatorlayout-1.1.0-alpha01\AndroidManifest.xml:20:5-44
MERGED from [androidx.coordinatorlayout:coordinatorlayout:1.1.0-alpha01] C:\Users\harle\.gradle\caches\transforms-2\files-2.1\cdcd7b4fd4c0b326ebd489122d27ba41\coordinatorlayout-1.1.0-alpha01\AndroidManifest.xml:20:5-44
MERGED from [androidx.legacy:legacy-support-core-utils:1.0.0] C:\Users\harle\.gradle\caches\transforms-2\files-2.1\240b5d9dac701614a3199e1fe97e5b6c\legacy-support-core-utils-1.0.0\AndroidManifest.xml:20:5-44
MERGED from [androidx.legacy:legacy-support-core-utils:1.0.0] C:\Users\harle\.gradle\caches\transforms-2\files-2.1\240b5d9dac701614a3199e1fe97e5b6c\legacy-support-core-utils-1.0.0\AndroidManifest.xml:20:5-44
MERGED from [androidx.transition:transition:1.0.1] C:\Users\harle\.gradle\caches\transforms-2\files-2.1\7b0fe14a2be7e4c0132f4d250e981428\transition-1.0.1\AndroidManifest.xml:20:5-44
MERGED from [androidx.transition:transition:1.0.1] C:\Users\harle\.gradle\caches\transforms-2\files-2.1\7b0fe14a2be7e4c0132f4d250e981428\transition-1.0.1\AndroidManifest.xml:20:5-44
MERGED from [androidx.viewpager:viewpager:1.0.0] C:\Users\harle\.gradle\caches\transforms-2\files-2.1\955a6585d7a9c18d6bf6a87f6ee65069\viewpager-1.0.0\AndroidManifest.xml:20:5-44
MERGED from [androidx.viewpager:viewpager:1.0.0] C:\Users\harle\.gradle\caches\transforms-2\files-2.1\955a6585d7a9c18d6bf6a87f6ee65069\viewpager-1.0.0\AndroidManifest.xml:20:5-44
MERGED from [androidx.loader:loader:1.0.0] C:\Users\harle\.gradle\caches\transforms-2\files-2.1\6d12fcce36df08538717b88e14b43a49\loader-1.0.0\AndroidManifest.xml:20:5-44
MERGED from [androidx.loader:loader:1.0.0] C:\Users\harle\.gradle\caches\transforms-2\files-2.1\6d12fcce36df08538717b88e14b43a49\loader-1.0.0\AndroidManifest.xml:20:5-44
MERGED from [androidx.activity:activity:1.0.0] C:\Users\harle\.gradle\caches\transforms-2\files-2.1\27bb1a82a352fcc4ad1c98b891d7bb5d\activity-1.0.0\AndroidManifest.xml:20:5-22:41
MERGED from [androidx.activity:activity:1.0.0] C:\Users\harle\.gradle\caches\transforms-2\files-2.1\27bb1a82a352fcc4ad1c98b891d7bb5d\activity-1.0.0\AndroidManifest.xml:20:5-22:41
MERGED from [androidx.vectordrawable:vectordrawable-animated:1.1.0] C:\Users\harle\.gradle\caches\transforms-2\files-2.1\557eb28e58ea701ed3e7b1d827d36107\vectordrawable-animated-1.1.0\AndroidManifest.xml:20:5-22:41
MERGED from [androidx.vectordrawable:vectordrawable-animated:1.1.0] C:\Users\harle\.gradle\caches\transforms-2\files-2.1\557eb28e58ea701ed3e7b1d827d36107\vectordrawable-animated-1.1.0\AndroidManifest.xml:20:5-22:41
MERGED from [androidx.vectordrawable:vectordrawable:1.1.0] C:\Users\harle\.gradle\caches\transforms-2\files-2.1\f935106c2b4fa8baea5aa8af14d2b13f\vectordrawable-1.1.0\AndroidManifest.xml:20:5-22:41
MERGED from [androidx.vectordrawable:vectordrawable:1.1.0] C:\Users\harle\.gradle\caches\transforms-2\files-2.1\f935106c2b4fa8baea5aa8af14d2b13f\vectordrawable-1.1.0\AndroidManifest.xml:20:5-22:41
MERGED from [androidx.slidingpanelayout:slidingpanelayout:1.0.0] C:\Users\harle\.gradle\caches\transforms-2\files-2.1\b62690d9dde2a6a00a94a6af7c0f163c\slidingpanelayout-1.0.0\AndroidManifest.xml:20:5-44
MERGED from [androidx.slidingpanelayout:slidingpanelayout:1.0.0] C:\Users\harle\.gradle\caches\transforms-2\files-2.1\b62690d9dde2a6a00a94a6af7c0f163c\slidingpanelayout-1.0.0\AndroidManifest.xml:20:5-44
MERGED from [androidx.customview:customview:1.0.0] C:\Users\harle\.gradle\caches\transforms-2\files-2.1\36abab4db82c302e39d424a4f8f4e29e\customview-1.0.0\AndroidManifest.xml:20:5-44
MERGED from [androidx.customview:customview:1.0.0] C:\Users\harle\.gradle\caches\transforms-2\files-2.1\36abab4db82c302e39d424a4f8f4e29e\customview-1.0.0\AndroidManifest.xml:20:5-44
MERGED from [androidx.swiperefreshlayout:swiperefreshlayout:1.0.0] C:\Users\harle\.gradle\caches\transforms-2\files-2.1\f8948b0232052db3e7b8f03c891701f8\swiperefreshlayout-1.0.0\AndroidManifest.xml:20:5-44
MERGED from [androidx.swiperefreshlayout:swiperefreshlayout:1.0.0] C:\Users\harle\.gradle\caches\transforms-2\files-2.1\f8948b0232052db3e7b8f03c891701f8\swiperefreshlayout-1.0.0\AndroidManifest.xml:20:5-44
MERGED from [androidx.asynclayoutinflater:asynclayoutinflater:1.0.0] C:\Users\harle\.gradle\caches\transforms-2\files-2.1\853d26324799c26871954791069483df\asynclayoutinflater-1.0.0\AndroidManifest.xml:20:5-44
MERGED from [androidx.asynclayoutinflater:asynclayoutinflater:1.0.0] C:\Users\harle\.gradle\caches\transforms-2\files-2.1\853d26324799c26871954791069483df\asynclayoutinflater-1.0.0\AndroidManifest.xml:20:5-44
MERGED from [androidx.core:core:1.1.0] C:\Users\harle\.gradle\caches\transforms-2\files-2.1\0136ca65841c199e13145e51c5d77d51\core-1.1.0\AndroidManifest.xml:20:5-22:41
MERGED from [androidx.core:core:1.1.0] C:\Users\harle\.gradle\caches\transforms-2\files-2.1\0136ca65841c199e13145e51c5d77d51\core-1.1.0\AndroidManifest.xml:20:5-22:41
MERGED from [androidx.cursoradapter:cursoradapter:1.0.0] C:\Users\harle\.gradle\caches\transforms-2\files-2.1\a7ed0ca913094dcd572a2a491ee77296\cursoradapter-1.0.0\AndroidManifest.xml:20:5-44
MERGED from [androidx.cursoradapter:cursoradapter:1.0.0] C:\Users\harle\.gradle\caches\transforms-2\files-2.1\a7ed0ca913094dcd572a2a491ee77296\cursoradapter-1.0.0\AndroidManifest.xml:20:5-44
MERGED from [androidx.cardview:cardview:1.0.0] C:\Users\harle\.gradle\caches\transforms-2\files-2.1\88d46ce597d410c8d9a1addcd2777129\cardview-1.0.0\AndroidManifest.xml:20:5-44
MERGED from [androidx.cardview:cardview:1.0.0] C:\Users\harle\.gradle\caches\transforms-2\files-2.1\88d46ce597d410c8d9a1addcd2777129\cardview-1.0.0\AndroidManifest.xml:20:5-44
MERGED from [androidx.sqlite:sqlite-framework:2.0.0] C:\Users\harle\.gradle\caches\transforms-2\files-2.1\8ccd373bdbfcbc675f73af8b570b2085\sqlite-framework-2.0.0\AndroidManifest.xml:20:5-44
MERGED from [androidx.sqlite:sqlite-framework:2.0.0] C:\Users\harle\.gradle\caches\transforms-2\files-2.1\8ccd373bdbfcbc675f73af8b570b2085\sqlite-framework-2.0.0\AndroidManifest.xml:20:5-44
MERGED from [androidx.sqlite:sqlite:2.0.0] C:\Users\harle\.gradle\caches\transforms-2\files-2.1\8e2ac58592e5e7471002138330ec2654\sqlite-2.0.0\AndroidManifest.xml:20:5-44
MERGED from [androidx.sqlite:sqlite:2.0.0] C:\Users\harle\.gradle\caches\transforms-2\files-2.1\8e2ac58592e5e7471002138330ec2654\sqlite-2.0.0\AndroidManifest.xml:20:5-44
MERGED from [androidx.lifecycle:lifecycle-livedata:2.0.0] C:\Users\harle\.gradle\caches\transforms-2\files-2.1\cfc7a075599825242ccb3bf9049138d1\lifecycle-livedata-2.0.0\AndroidManifest.xml:20:5-44
MERGED from [androidx.lifecycle:lifecycle-livedata:2.0.0] C:\Users\harle\.gradle\caches\transforms-2\files-2.1\cfc7a075599825242ccb3bf9049138d1\lifecycle-livedata-2.0.0\AndroidManifest.xml:20:5-44
MERGED from [androidx.lifecycle:lifecycle-livedata-core:2.0.0] C:\Users\harle\.gradle\caches\transforms-2\files-2.1\942ae5bb408d75da4f7f89b1ab4a5794\lifecycle-livedata-core-2.0.0\AndroidManifest.xml:20:5-44
MERGED from [androidx.lifecycle:lifecycle-livedata-core:2.0.0] C:\Users\harle\.gradle\caches\transforms-2\files-2.1\942ae5bb408d75da4f7f89b1ab4a5794\lifecycle-livedata-core-2.0.0\AndroidManifest.xml:20:5-44
MERGED from [androidx.arch.core:core-runtime:2.0.0] C:\Users\harle\.gradle\caches\transforms-2\files-2.1\3f7255e5c39577612d42757c6a1a973c\core-runtime-2.0.0\AndroidManifest.xml:20:5-44
MERGED from [androidx.arch.core:core-runtime:2.0.0] C:\Users\harle\.gradle\caches\transforms-2\files-2.1\3f7255e5c39577612d42757c6a1a973c\core-runtime-2.0.0\AndroidManifest.xml:20:5-44
MERGED from [androidx.versionedparcelable:versionedparcelable:1.1.0] C:\Users\harle\.gradle\caches\transforms-2\files-2.1\9e4ba8edcf27848e4358a1aaab005aeb\versionedparcelable-1.1.0\AndroidManifest.xml:20:5-22:41
MERGED from [androidx.versionedparcelable:versionedparcelable:1.1.0] C:\Users\harle\.gradle\caches\transforms-2\files-2.1\9e4ba8edcf27848e4358a1aaab005aeb\versionedparcelable-1.1.0\AndroidManifest.xml:20:5-22:41
MERGED from [androidx.interpolator:interpolator:1.0.0] C:\Users\harle\.gradle\caches\transforms-2\files-2.1\0694e27135a967a4619b8381997d15ff\interpolator-1.0.0\AndroidManifest.xml:20:5-44
MERGED from [androidx.interpolator:interpolator:1.0.0] C:\Users\harle\.gradle\caches\transforms-2\files-2.1\0694e27135a967a4619b8381997d15ff\interpolator-1.0.0\AndroidManifest.xml:20:5-44
MERGED from [androidx.documentfile:documentfile:1.0.0] C:\Users\harle\.gradle\caches\transforms-2\files-2.1\e4a94d2054024c8be95b68226af78a53\documentfile-1.0.0\AndroidManifest.xml:20:5-44
MERGED from [androidx.documentfile:documentfile:1.0.0] C:\Users\harle\.gradle\caches\transforms-2\files-2.1\e4a94d2054024c8be95b68226af78a53\documentfile-1.0.0\AndroidManifest.xml:20:5-44
MERGED from [androidx.localbroadcastmanager:localbroadcastmanager:1.0.0] C:\Users\harle\.gradle\caches\transforms-2\files-2.1\37caa00d68abfda0e932890140749490\localbroadcastmanager-1.0.0\AndroidManifest.xml:20:5-44
MERGED from [androidx.localbroadcastmanager:localbroadcastmanager:1.0.0] C:\Users\harle\.gradle\caches\transforms-2\files-2.1\37caa00d68abfda0e932890140749490\localbroadcastmanager-1.0.0\AndroidManifest.xml:20:5-44
MERGED from [androidx.print:print:1.0.0] C:\Users\harle\.gradle\caches\transforms-2\files-2.1\e1d01877c650a22b3c257891754df4cc\print-1.0.0\AndroidManifest.xml:20:5-44
MERGED from [androidx.print:print:1.0.0] C:\Users\harle\.gradle\caches\transforms-2\files-2.1\e1d01877c650a22b3c257891754df4cc\print-1.0.0\AndroidManifest.xml:20:5-44
MERGED from [androidx.lifecycle:lifecycle-runtime:2.1.0] C:\Users\harle\.gradle\caches\transforms-2\files-2.1\d5c8fd7656d2d781dd0b283b433d864f\lifecycle-runtime-2.1.0\AndroidManifest.xml:20:5-44
MERGED from [androidx.lifecycle:lifecycle-runtime:2.1.0] C:\Users\harle\.gradle\caches\transforms-2\files-2.1\d5c8fd7656d2d781dd0b283b433d864f\lifecycle-runtime-2.1.0\AndroidManifest.xml:20:5-44
MERGED from [androidx.lifecycle:lifecycle-viewmodel:2.1.0] C:\Users\harle\.gradle\caches\transforms-2\files-2.1\bde85ae55f6557b57d2583fe07d581aa\lifecycle-viewmodel-2.1.0\AndroidManifest.xml:20:5-44
MERGED from [androidx.lifecycle:lifecycle-viewmodel:2.1.0] C:\Users\harle\.gradle\caches\transforms-2\files-2.1\bde85ae55f6557b57d2583fe07d581aa\lifecycle-viewmodel-2.1.0\AndroidManifest.xml:20:5-44
MERGED from [androidx.savedstate:savedstate:1.0.0] C:\Users\harle\.gradle\caches\transforms-2\files-2.1\aaebdf12f89ffa22d526c59842f63ce2\savedstate-1.0.0\AndroidManifest.xml:20:5-22:41
MERGED from [androidx.savedstate:savedstate:1.0.0] C:\Users\harle\.gradle\caches\transforms-2\files-2.1\aaebdf12f89ffa22d526c59842f63ce2\savedstate-1.0.0\AndroidManifest.xml:20:5-22:41
INJECTED from D:\Games\mobile-tech-app\AndroidNotesApplication\app\src\main\AndroidManifest.xml
INJECTED from D:\Games\mobile-tech-app\AndroidNotesApplication\app\src\main\AndroidManifest.xml
	android:targetSdkVersion
		INJECTED from D:\Games\mobile-tech-app\AndroidNotesApplication\app\src\main\AndroidManifest.xml
		ADDED from D:\Games\mobile-tech-app\AndroidNotesApplication\app\src\main\AndroidManifest.xml
		INJECTED from D:\Games\mobile-tech-app\AndroidNotesApplication\app\src\main\AndroidManifest.xml
	android:minSdkVersion
		INJECTED from D:\Games\mobile-tech-app\AndroidNotesApplication\app\src\main\AndroidManifest.xml
		ADDED from D:\Games\mobile-tech-app\AndroidNotesApplication\app\src\main\AndroidManifest.xml
		INJECTED from D:\Games\mobile-tech-app\AndroidNotesApplication\app\src\main\AndroidManifest.xml
meta-data#android.support.FILE_PROVIDER_PATHS
ADDED from D:\Games\mobile-tech-app\AndroidNotesApplication\app\src\main\AndroidManifest.xml:58:13-60:63
	android:resource
		ADDED from D:\Games\mobile-tech-app\AndroidNotesApplication\app\src\main\AndroidManifest.xml:60:17-50
	android:name
		ADDED from D:\Games\mobile-tech-app\AndroidNotesApplication\app\src\main\AndroidManifest.xml:59:17-67
uses-feature#0x00020000
ADDED from [com.google.android.gms:play-services-maps:17.0.0] C:\Users\harle\.gradle\caches\transforms-2\files-2.1\f1e8a552b6270f33a49ec3b6de09bbea\play-services-maps-17.0.0\AndroidManifest.xml:26:5-28:35
	android:glEsVersion
		ADDED from [com.google.android.gms:play-services-maps:17.0.0] C:\Users\harle\.gradle\caches\transforms-2\files-2.1\f1e8a552b6270f33a49ec3b6de09bbea\play-services-maps-17.0.0\AndroidManifest.xml:27:9-41
	android:required
		ADDED from [com.google.android.gms:play-services-maps:17.0.0] C:\Users\harle\.gradle\caches\transforms-2\files-2.1\f1e8a552b6270f33a49ec3b6de09bbea\play-services-maps-17.0.0\AndroidManifest.xml:28:9-32
uses-library#org.apache.http.legacy
ADDED from [com.google.android.gms:play-services-maps:17.0.0] C:\Users\harle\.gradle\caches\transforms-2\files-2.1\f1e8a552b6270f33a49ec3b6de09bbea\play-services-maps-17.0.0\AndroidManifest.xml:33:9-35:40
	android:required
		ADDED from [com.google.android.gms:play-services-maps:17.0.0] C:\Users\harle\.gradle\caches\transforms-2\files-2.1\f1e8a552b6270f33a49ec3b6de09bbea\play-services-maps-17.0.0\AndroidManifest.xml:35:13-37
	android:name
		ADDED from [com.google.android.gms:play-services-maps:17.0.0] C:\Users\harle\.gradle\caches\transforms-2\files-2.1\f1e8a552b6270f33a49ec3b6de09bbea\play-services-maps-17.0.0\AndroidManifest.xml:34:13-50
activity#com.google.android.gms.common.api.GoogleApiActivity
ADDED from [com.google.android.gms:play-services-base:17.0.0] C:\Users\harle\.gradle\caches\transforms-2\files-2.1\61050d192d7b40096effddbc75f65a23\play-services-base-17.0.0\AndroidManifest.xml:23:9-26:75
	android:exported
		ADDED from [com.google.android.gms:play-services-base:17.0.0] C:\Users\harle\.gradle\caches\transforms-2\files-2.1\61050d192d7b40096effddbc75f65a23\play-services-base-17.0.0\AndroidManifest.xml:25:13-37
	android:theme
		ADDED from [com.google.android.gms:play-services-base:17.0.0] C:\Users\harle\.gradle\caches\transforms-2\files-2.1\61050d192d7b40096effddbc75f65a23\play-services-base-17.0.0\AndroidManifest.xml:26:13-72
	android:name
		ADDED from [com.google.android.gms:play-services-base:17.0.0] C:\Users\harle\.gradle\caches\transforms-2\files-2.1\61050d192d7b40096effddbc75f65a23\play-services-base-17.0.0\AndroidManifest.xml:24:13-79
meta-data#com.google.android.gms.version
ADDED from [com.google.android.gms:play-services-basement:17.0.0] C:\Users\harle\.gradle\caches\transforms-2\files-2.1\2f2a5c73c86c89756da15277ad9b569e\jetified-play-services-basement-17.0.0\AndroidManifest.xml:23:9-25:69
	android:value
		ADDED from [com.google.android.gms:play-services-basement:17.0.0] C:\Users\harle\.gradle\caches\transforms-2\files-2.1\2f2a5c73c86c89756da15277ad9b569e\jetified-play-services-basement-17.0.0\AndroidManifest.xml:25:13-66
	android:name
		ADDED from [com.google.android.gms:play-services-basement:17.0.0] C:\Users\harle\.gradle\caches\transforms-2\files-2.1\2f2a5c73c86c89756da15277ad9b569e\jetified-play-services-basement-17.0.0\AndroidManifest.xml:24:13-58
